TANDEMBOX okvir, Visina M (83 mm), NL=500 mm, desno+lijevo, za TANDEMBOX intivo/antaro
TANDEMBOX okvir, Visina M (83 mm), NL=500 mm, desno+lijevo, za TANDEMBOX intivo/antaro
TANDEMBOX BLUMOTION vodilica koja se pričvršćuje na korpus, 30 kg, NL=500 mm, desno+lijevo
TANDEMBOX BLUMOTION vodilica koja se pričvršćuje na korpus, 30 kg, NL=500 mm, desno+lijevo
TANDEMBOX Pričvršćivanje fronte, vijci, simetrično
TANDEMBOX drveni držač stražnje stranice, Visina D (224 mm), desno+lijevo
TANDEMBOX drveni držač stražnje stranice, Visina D (224 mm), desno+lijevox
TANDEMBOX Uzdužna ograda (gore), za Fronta na izvlačenje, NL=500 mm, desno+lijevo, za TANDEMBOX antaro
TANDEMBOX Držač za uložni element, Visina D, sprijeda/straga, desno+lijevo, za TANDEMBOX antaro
TANDEMBOX drveni držač stražnje stranice, Visina M (96,5 mm), desno+lijevo
TANDEMBOX drveni držač stražnje stranice, Visina M (96,5 mm), desno+lijevo
TANDEMBOX okvir, Visina K (115 mm), NL=500 mm, desno+lijevo, za TANDEMBOX antaro
TANDEMBOX okvir, Visina K (115 mm), NL=500 mm, desno+lijevo, za TANDEMBOX antaro
TANDEMBOX Pričvršćivanje fronte, INSERTA, simetrično
AVENTOS HK TIP-ON SPREMNIK LF3200-9000
AVENTOS HK POKRIVNE KAPE PONIKLANE
AVENTOS HK POKRIVNE KAPE SIVE
AVENTOS HK POKRIVNE KAPE BIJELE
AVENTOS HK TIP-ON SPREMNIK LF750-2500
AVENTOS HK TIP-ON SPREMNIK LF1500-4900
AVENTOS HK HL HS prihvatnik za alu okvir
AVENTOS_HK_S_LF_220-500_B_SIVI_KPL
AVENTOS_HKS_PRIHV_FRONTE_NOVI_DRVO
AVENTOS_HK_S_LF_960-2215_E_SIVI_KPL
AVENTOS_HK_S_LF_400-1000_C_SIVI_KPL
AVENTOS_HK_S_TIP_ON_LF_220-500_B_SIVI_KPL
AVENTOS_HK_S_TIP_ON_LF_400-1000_C_SIVI_KPL
AVENTOS_HK_S_TIP_ON_LF_960-2215_E_SIVI_KPL
AVENTOS HK TIP-ON SPREMNIK LF480-1500
Solido 45° spojnica
Solido 95° paralelna spojnica
Solido kriva spojnica
Solido kriva spojnica1
Solido polukriva spojnica
Solido polukriva spojnica1
Solido ravna spojnica 110°
Solido ravna spojnica 170°
Solido Easy-On zglobna spojnica
Blum kutna spojnica 110°
Blum paralelna spojnica 95°
Blum ravna spojnica 170°
Blum spojnica za kutni ormar
Solido mini spojnica ravna
Blum ravna spojnica 100°
Blum kutna spojnica +5°
Blum kutna spojnica +10°, +15°, +20°
Blum kutna spojnica +25°, +30°, +35°
Blum kutna spojnica +40°, +45°, +50°
Blum kutna spojnica -5°
Blum kutna spojnica -10°, -15°, -20°
Blum kutna spojnica -25°, -30°, -35°
Blum kutna spojnica -40°, -45°, -50°
Solido mini spojnica polukriva
Solido mini spojnica kriva
Blum polukriva spojnica 100°
Blum kriva spojnica 100°
Blum polukriva spojnica 170°
Blum ravna spojnica za staklo
Blum polukriva spojnica za staklo
Blum kriva spojnica za staklo
Solido ravna spojnica za staklo
Solido polukriva spojnica za staklo
Solido kriva spojnica za staklo
Kostrukcijski okov za sokl
Podizno okretni okovi 300-330
Podizno okretni okovi 335-360
Prihvatnik sokla
Turbo klip-F univrzalni držač sokla
Podesiva nogica za sokl
Drzac blende
Pricvrsna pločica za prihvatnik blende
Prihvatnik blende - dvodjelni
Vodilica podne ladice
Noge za stol Aluminia 60
Noge za stol Aluminia 80
Podesive nogice za namještaj 100 mm- komplet
Podesive nogice za namjestaj Unico 100mm
Gornji dio za podesive nogice Unico
Noga za namještaj - kromirana 100mm
Noga za namještaj - zeljezo crno 100mm
Noga za namještaj valjkasta - bijela 100mm
Noga za namještaj valjkasta - kromirana 100mm
Vijci za podešavanje nogu za namještaj
Dekor. noge drvo-rostfrei fi 50 - 100mm
Dekor. noge drvo-rostfrei fi 50 - 150mm
Dekor. noge drvo-rostfrei fi 60 - 100mm
Dekor. noge drvo-rostfrei fi 60 - 150mm
Dekor. noge Torino 1025 100mm kromirane
Dekor. noge Torino 1025 100mm nikl mat
Dekor. noge Torino 1025 100mm polirane
Dekor. noge Torino 1025 150mm kromirane
Dekor. noge Torino 1025 150mm nikl mat
Dekor. noge Torino 1025 150mm polirane
Dekor. noge Torino 1026 100mm kromirane
Dekor. noge Torino 1026 100mm nikl mat
Dekor. noge Torino 1026 100mm polirane
Dekor. noge Torino 1026 150mm kromirane
Dekor. noge Torino 1026 150mm nikl mat
Dekor. noge Torino 1026 150mm polirane
Dekor. noge Torino 1027 100mm kromirane
Dekor. noge Torino 1027 100mm nikl mat
Dekor. noge Torino 1027 100mm polirane
Dekor. noge Torino 1027 150mm kromirane
Dekor. noge Torino 1027 150mm nikl mat
Dekor. noge Torino 1027 150mm polirane
Dekor. noge Torino 1029 100mm kromirane
Dekor. noge Torino 1029 100mm nikl mat
Dekor. noge Torino 1029 100mm polirane
Dekor. noge Torino 1029 150mm kromirane
Dekor. noge Torino 1029 150mm nikl mat
Dekor. noge Torino 1029 150mm polirane
Produženja za dekor. noge 40mm krom
Produženja za dekor. noge 40mm nikl mat
Produženja za dekor. noge 40mm polir
Produženja za dekor. noge 80mm krom
Produženja za dekor. noge 80mm nikl mat
Produženja za dekor. noge 80mm polir
Produženja za dekor. noge 100mm krom
Produženja za dekor. noge 100mm nikl mat
Produženja za dekor. noge 100mm polir
Pričvrsne pločice za dekor. noge trokut
Pričvrsne pločice za dekor. noge pravokutnik
Drvene tiple - razne
Drveni čepovi - razni
Vezni vijci i pribor
Dekorativne noge 122mm mesing polirani
Dekorativne noge 122mm krom
Dekorativne noge 122mm nikl mat
Dekorativne noge 140mm mesing polirani
Dekorativne noge 140mm krom
Dekorativne noge 140mm nikl mat
Dekorativne noge 190mm mesing polirani
Dekorativne noge 190mm krom
Dekorativne noge 190mm nikl mat
Noge za namještaj fi 35 vis.100mm
Noge za namještaj fi 35 vis.120mm
Noge za namještaj fi 35 vis.160mm
Noge za namještaj fi 35 vis.190mm
Noge za namještaj fi 42 vis.120 s pločicom
Noge za namještaj fi 42 vis.190 s pločicom
Noge za namještaj fi 42 vis.120 s M10 nav.
Noge za namještaj fi 42 vis.190 s M10 nav.
Noge za namještaj fi 60 vis.190 s pločicom
Noge za namještaj fi 80 vis.190 s pločicom
Noge za namještaj fi 60 vis.190 s M10 nav.
Noge za namještaj fi 80 vis.190 s M10 nav.
Sklopive noge za stol kromirane
Sklopive noge za stol rostfrei
Sklopive noge za stol srebrne RAL 9006
Tandembox 358M - čelik 270mm
Tandembox 358M - čelik 350mm
Tandembox 358M - čelik 400mm
Tandembox 358M - čelik 450mm
Tandembox 358M - čelik 500mm
Tandembox 358M - čelik 550mm
Tandembox 358M sa relingom- čelik 350mm
Tandembox 358M sa relingom- čelik 400mm
Tandembox 358M sa relingom- čelik 450mm
Tandembox 358M sa relingom- čelik 500mm
Tandembox 358M sa relingom- čelik 550mm
Garderobni lift JUNIOR 450-600mm
Garderobni lift JUNIOR 600-850mm
Garderobni lift JUNIOR 800-1150mm
Izvlačna vješalica 260mm
Izvlačna vješalica 300mm
Iver vij.upuš.gl.polu navoj bij.pocin.
Iver vij.upuš.gl.polu navoj žuto.pocin
Iver vij.upuš.gl.puni navoj bij.pocin.
Iver vij.upuš.gl.puni navoj žuto.pocin
Iver vij.upuš.gl.puni navoj s rupom
Optimal univerz.vijci polu navoj
Optimal univerz.vijci puni navoj
Vijak za drvo DIN 571
Vijci šesterokutna glava DIN 931-8.8
Vijci šesterokutna glava DIN 933-8.8
Vijci za ugrad,okova i PVC prof
Torban vijci DIN 603
Kapice za iver vijke
Matice DIN 934 - 8
Krilaste matice DIN 315
Šešir matice DIN 1587
Trio matice
Brtvena podloška neopren
Podloške DIN 125A
Podloške DIN 127B
Široke podloške DIN 9021
Nazubljene podloške DIN 6798A
Navojne šipke DIN 975 blank
Navojne šipke DIN 975 pocin
Tiple razne
Okov za otkl. vrata opruga D 120N
Okov za otkl. vrata opruga L 120N
Okov za otkl. vrata opruga D 180N
Okov za otkl. vrata opruga L 180N
Podupirači dulj.200mm Desno
Podupirači dulj.200mm Lijevo
Podupirači dulj.250mm Desno
Podupirači dulj.250mm Lijevo
Pneu. podup. Suspa za tež. vrata 5kg
Pneu. podup. Suspa za tež. vrata 8kg
Pneu. podup. Suspa za tež. vrata 12kg
Pneu. podup. Suspa za tež. vr.5kg za uski alu ok.
Pneu. podup. Suspa za tež. vr.8kg za uski alu ok.
Pneu. podup. Suspa za tež. vr.12kg za uski alu ok.
Podupirač s oprugom dulj.200mm
Podizne škare 600 Desno
Podizne škare 600 Lijevo
Podizni držač s opružnom potporom 200mm
Škare Phono Desno 150mm
Škare Phono Lijevo 150mm
Zaklopni držač dulj.178mm
Zaklopni držač dulj.228mm
Zaustavni zaklopni držač kučiš. smeđe
Zaustavni zaklopni držač kučiš. bijelo
Zaust.zaklop.držač Quick  sa vijkom 200mm
Zaust.zaklop.držač Quick  sa tiplom 200mm
Zaust.zaklop.držač Ideal za korp.370mm L-bij.
Zaust.zaklop.držač Ideal za korp.370mm D-bij.
Zaust.zaklop.držač Ideal za korp.420mm L-bij.
Zaust.zaklop.držač Ideal za korp.420mm D-bij.
Zaust.zaklop.držač Ideal za korp.370mm L-sme.
Zaust.zaklop.držač Ideal za korp.370mm D-sme.
Zaust.zaklop.držač Ideal za korp.420mm L-sme.
Zaust.zaklop.držač Ideal za korp.420mm D-sme.
Zaust.zakl.držač Exquisit 360mm
Zaust.zakl.držač Exquisit 410mm
Zaust.zakl.držač Exquisit 460mm
Zaust.zakl.držač Exquisit 360mm s mag.lež. 
Zaust.zakl.držač Exquisit 410mm s mag.lež. 
Zaust.zakl.držač Exquisit 460mm s mag.lež. 
Klizaći_podloške_odstojnici_klinovi
Zatvarači
Nosači polica
Nosači staklenih polica
Podložna pločica bez euro vijka
Podložna pločica sa euro vijkom
Podložna pločica podesiva po visini
Podl.pločica za mini spoj.bez vijka
Podl.pločica za mini spoj.sa vijkom
Kutni klin -5°
Kutni klin +5° razmak 1mm
Kutni klin +5° razmak 4mm
Kutni klin +5° razmak 7mm
Euro vijak upustena glava poniklan
Euro vijak poluokrugla glava pocincan
Kotačić s kočnicom
Nevidljivi nosač polica vario
Set ovjesa ormara
Ovjesi ormara L
Ovjesi ormara D
Ovjes ormara 806 L
Ovjes ormara 806 D
Kapice za ovjes ormara 806 plast.L
Kapice za ovjes ormara 806 plast.D
Kapice za ovjes ormara 806 zeljezo L
Kapice za ovjes ormara 806 zeljezo D
Zidne letvice
Kukasti vijak
Konzole za bar-ravne čelik.krom.mat
Konzole za bar-ravne čelik.krom.poliran
Konzole za bar-kose čel.krom.mat vis.170
Konzole za bar-kose čel.krom.polir. vis.170
Konzole za bar-kose čel.krom.mat vis.230
Konzole za bar-kose čel.krom.polir. vis.230
Solido metabox duljina 270 bijela
Solido metabox duljina 350 bijela
Solido metabox duljina 400 bijela
Solido metabox duljina 450 bijela
Solido metabox duljina 500 bijela
Solido metabox duljina 550 bijela
Solido metabox duljina 500 crna
Solido metabox duljina 550 crna
Blum metabox 320M - duljina 270
Blum metabox 320M - duljina 350
Blum metabox 320M - duljina 400
Blum metabox 320M - duljina 450
Blum metabox 320M - duljina 500
Blum metabox 320M - duljina 550
Blum metabox 320H - duljina 350
Blum metabox 320H - duljina 400
Blum metabox 320H - duljina 450
Blum metabox 320H - duljina 500
Blum metabox 320H - duljina 550
Pričvrsnik fronte na vijke L
Pričvrsnik fronte na vijke D
Pričvrsnik fronte na utiskivanje L
Pričvrsnik fronte na utiskivanje D
Pričvrsnik fronte za unutarnju ladicu L
Pričvrsnik fronte za unutarnju ladicu D
Bočni izvl. okov w150
Ručkice za vrata
Okr. polica fi720 za DE900x900
Okr. polica fi720 za DE800x800
Okr. polica fi820 za DE900x900
Okr. polica fi820 za DE900x900 bez pop.preg.
Polukr. okr. pol. fi700 za DE900
Okr.pol.žič.3/4 kr. fi720 za DE900 i 800
Okr.pol.žič.3/4 kr. fi820 za DE900 i 800
Okretna polica fi530 za GE600
Okretna polica 3/4 kruga fi530 za GE600
Izvlačna košara v100 d500 za Elem. 300
Izvlačna košara v100 d500 za Elem. 400
Izvlačna košara v100 d500 za Elem. 450
Izvlačna košara v100 d500 za Elem. 500
Izvlačna košara v100 d500 za Elem. 600
Izvlačna košara v80 za Elemente 300
Izvlačna košara v80 za Elemente 400
Izvlačna košara v80 za Elemente 450
Izvlačna košara v80 za Elemente 500
Izvlačna košara v80 za Elemente 600
Izvlačni ormar Soft line za vis. 950-1330
Izvlačni ormar Soft line za vis.1315-1720
Izvlačni ormar Soft line za vis.1720-2100
Izvlačni ormar Soft line za vis.2100-2480
Ovjesna košara za Element 300
Ovjesna košara za Element 400
Košara za boce za Element 300
Košara za boce za Element 400
Wari-corner2 desni ormar lijeva izvlaka krom
Wari-corner2 lijevi ormar desna izvlaka krom
Wari-corner2 desni ormar lijeva izvlaka srebro
Wari-corner2 lijevi ormar desna izvlaka srebro
Wari-corner4 desni ormar lijeva izvlaka krom
Wari-corner4 lijevi ormar desna izvlaka krom
Wari-corner4 desni ormar lijeva izvlaka srebro
Wari-corner4 lijevi ormar desna izvlaka krom
Bočni izvlačni okov W45/90 v600
Bočni izvlačni okov W45/90 v750
Košara za okov W45/90 45° lijevo
Košara za okov W45/90 45° desno
Košara za okov W45/90 90°
Bočni izvlačni okov W150 v600
Bočni izvlačni okov W150 v750
Košara za okov W150 60°
Košara za okov W150 90°
Kotačići za namještaj i kolica
Kotačići za namještaj i kolica 2
Vodilica AZ870 10kg 187mm dulj.lad bočna
Vodilica AZ870 10kg 350mm dulj.lad bočna
Vodilica AZ870 10kg 400mm dulj.lad bočna
Vodilica AZ870 10kg 450mm dulj.lad bočna
Vodilica AZ870 10kg 500mm dulj.lad bočna
Vodilica AZ870 10kg 550mm dulj.lad bočna
Vodilica AZ870 12kg 500mm dulj.lad bočna
Vodilica Blum  25kg 250mm dulj.lad. podna B
Vodilica Blum  25kg 300mm dulj.lad. podna B
Vodilica Blum  25kg 350mm dulj.lad. podna B
Vodilica Blum  25kg 400mm dulj.lad. podna B
Vodilica Blum  25kg 450mm dulj.lad. podna B
Vodilica Blum  25kg 500mm dulj.lad. podna B
Vodilica Blum  25kg 550mm dulj.lad. podna B
Vodilica Blum  25kg 600mm dulj.lad. podna B
Vodilica Blum  25kg 650mm dulj.lad. podna B
Vodilica Blum  25kg 700mm dulj.lad. podna B
Vodilica Blum  25kg 750mm dulj.lad. podna B
Vodilica Blum  25kg 800mm dulj.lad. podna B
Vodilica Blum  25kg 250mm dulj.lad. podna S
Vodilica Blum  25kg 300mm dulj.lad. podna S
Vodilica Blum  25kg 350mm dulj.lad. podna S
Vodilica Blum  25kg 400mm dulj.lad. podna S
Vodilica Blum  25kg 450mm dulj.lad. podna S
Vodilica Blum  25kg 500mm dulj.lad. podna S
Vodilica Blum  25kg 550mm dulj.lad. podna S
Vodilica Blum  25kg 600mm dulj.lad. podna S
Vodilica Solido 25kg 250mm dulj.lad. podna B
Vodilica Solido 25kg 300mm dulj.lad. podna B
Vodilica Solido 25kg 350mm dulj.lad. podna B
Vodilica Solido 25kg 400mm dulj.lad. podna B
Vodilica Solido 25kg 450mm dulj.lad. podna B
Vodilica Solido 25kg 500mm dulj.lad. podna B
Vodilica Solido 25kg 550mm dulj.lad. podna B
Vodilica Solido 25kg 600mm dulj.lad. podna B
Vodilica FR1020 30 kg 300mm podna pod.vis.
Vodilica FR1020 30 kg 350mm podna pod.vis.
Vodilica FR1020 30 kg 400mm podna pod.vis.
Vodilica FR1020 30 kg 450mm podna pod.vis.
Vodilica FR1020 30 kg 500mm podna pod.vis.
Vodilica FR1020 30 kg 550mm podna pod.vis.
Vodilica FR1020 30 kg 600mm podna pod.vis.
Vodilica FR1020 30 kg 650mm podna pod.vis.
Vodilica FR1020 30 kg 700mm podna pod.vis.
Vod. Accuride 3832 pu.izvl.45kg 250mm boč.
Vod. Accuride 3832 pu.izvl.45kg 300mm boč.
Vod. Accuride 3832 pu.izvl.45kg 350mm boč.
Vod. Accuride 3832 pu.izvl.45kg 400mm boč.
Vod. Accuride 3832 pu.izvl.45kg 450mm boč.
Vod. Accuride 3832 pu.izvl.45kg 500mm boč.
Vod. Accuride 3832 pu.izvl.45kg 550mm boč.
Vod. Accuride 3832 pu.izvl.45kg 600mm boč.
Vod. Accuride 3832 pu.izvl.45kg 650mm boč.
Vod. Accuride 3832 pu.izvl.45kg 700mm boč.
Vod. Accuride 5517 pu.izvl.60kg 300mm boč.
Vod. Accuride 5517 pu.izvl.60kg 350mm boč.
Vod. Accuride 5517 pu.izvl.60kg 400mm boč.
Vod. Accuride 5517 pu.izvl.60kg 450mm boč.
Vod. Accuride 5517 pu.izvl.60kg 500mm boč.
Vod. Accuride 5517 pu.izvl.60kg 550mm boč.
Vod. Accuride 5517 pu.izvl.60kg 600mm boč.
Vod. Accuride 5517 pu.izvl.60kg 650mm boč.
Vod. Accuride 5517 pu.izvl.60kg 700mm boč.
Vod. Accuride 5321 pu.izvl.max160kg 300mm
Vod. Accuride 5321 pu.izvl.max160kg 350mm
Vod. Accuride 5321 pu.izvl.max160kg 400mm
Vod. Accuride 5321 pu.izvl.max160kg 450mm
Vod. Accuride 5321 pu.izvl.max160kg 500mm
Vod. Accuride 5321 pu.izvl.max160kg 550mm
Vod. Accuride 5321 pu.izvl.max160kg 600mm
Vod. Accuride 5321 pu.izvl.max160kg 700mm
Vod. Accuride 5321 pu.izvl.max160kg 790mm
Vod. telesk. JAN-B 40-60kg 300mm pod.ugr.
Vod. telesk. JAN-B 40-60kg 350mm pod.ugr.
Vod. telesk. JAN-B 40-60kg 400mm pod.ugr.
Vod. telesk. JAN-B 40-60kg 450mm pod.ugr.
Vod. telesk. JAN-B 40-60kg 500mm pod.ugr.
Vod. telesk. JAN-B 40-60kg 550mm pod.ugr.
Vod. telesk. JAN-B 40-60kg 600mm pod.ugr.
Vod. telesk. JAN-B 40-60kg 650mm pod.ugr.
Vod. telesk. JAN-B 40-60kg 700mm pod.ugr.
Vod.telesk.TITAN 80-100kg 400mm pod.ugr.
Vod.telesk.TITAN 80-100kg 450mm pod.ugr.
Vod.telesk.TITAN 80-100kg 500mm pod.ugr.
Vod.telesk.TITAN 80-100kg 550mm pod.ugr.
Vod.telesk.TITAN 80-100kg 600mm pod.ugr.
Vod.telesk.TITAN 80-100kg 700mm pod.ugr.
Vod.telesk.TITAN 80-100kg 750mm pod.ugr.
Šablona za vodilice ladica
Vod.Tandem 550H 30kg 270mm vodilica
Vod.Tandem 550H 30kg 300mm vodilica
Vod.Tandem 550H 30kg 350mm vodilica
Vod.Tandem 550H 30kg 400mm vodilica
Vod.Tandem 550H 30kg 450mm vodilica
Vod.Tandem 550H 30kg 500mm vodilica
Vod.Tandem 550H 30kg 550mm vodilica
Vod.Tandem 550H 30kg 600mm vodilica
Vod.Tandem 550H 30kg 650mm vodilica
Vod.Tandem550H PLUS 30kg 250mm vodil.
Vod.Tandem 550H PLUS 30kg 270mm vodil.
Vod.Tandem 550H PLUS 30kg 300mm vodil.
Vod.Tandem 550H PLUS 30kg 320mm vodil.
Vod.Tandem 550H PLUS 30kg 350mm vodil.
Vod.Tandem 550H PLUS 30kg 380mm vodil.
Vod.Tandem 550H PLUS 30kg 400mm vodil.
Vod.Tandem 550H PLUS 30kg 420mm vodil.
Vod.Tandem 550H PLUS 30kg 450mm vodil.
Vod.Tandem 550H PLUS 30kg 480mm vodil.
Vod.Tandem 550H PLUS 30kg 500mm vodil.
Vod.Tandem 550H PLUS 30kg 520mm vodil.
Vod.Tandem 550H PLUS 30kg 550mm vodil.
Vod.Tandem 550H PLUS 30kg 580mm vodil.
Vod.Tandem 550H PLUS 50kg 450mm vodil.
Vod.Tandem 550H PLUS 50kg 500mm vodil.
Vod.Tandem 550H PLUS 50kg 550mm vodil.
Vod.Tandem 550H PLUS 50kg 600mm vodil.
Vod.Tandem 550H PLUS 50kg 650mm vodil.
Vod.Tandem 550H PLUS 50kg 700mm vodil.
Vod.Tandem 550H PLUS 50kg 750mm vodil.
Tandem spojnica lijeva
Tandem spojnica desna
Tandem šablona
Tandem šablona za tijelo elementa
Tandem prihvatmik
Accuride1234 okr/kliz vrata 354mm vodilica
Accuride1234 okr/kliz vrata 405mm vodilica
Accuride1234 okr/kliz vrata 456mm vodilica
Accuride1234 okr/kliz vrata 506mm vodilica
Accuride1234 okr/kliz vrata 557mm vodilica
Accuride1234 okr/kliz vrata 608mm vodilica
Pocket door/flipper door 450mm lijevo
Pocket door/flipper door 450mm desno
Pocket door/flipper door 500mm lijevo
Pocket door/flipper door 500mm desno
Pocket door/flipper door 550mm lijevo
Pocket door/flipper door 550mm desno
Pocket door/flipper door 600mm lijevo
Pocket door/flipper door 600mm desno
Accuride1435 okr/kliz vrata
Nogice za kuhinjski el. 1
_Ruckica 1
_Ruckica 2
_Ruckica 3
_Ruckica 4
_Ruckica 5
_Ruckica 6
_Ruckica 7 
_Ruckica 8
_Ruckica 9
_Ruckica 10
_Ruckica 11
_Ruckica 12
_Ruckica 13
_Ruckica 14
_Ruckica 15
_Metabox 270mm_H
_Metabox 350mm_H
_Metabox 400mm_H
_Metabox 450mm_H
_Metabox 500mm_H
_Metabox 550mm_H
_Metabox 270mm_K
_Metabox 350mm_K
_Metabox 400mm_K
_Metabox 450mm_K
_Metabox 500mm_K
_Metabox 550mm_K
_Metabox 270mm_N
_Metabox 350mm_N
_Metabox 400mm_N
_Metabox 450mm_N
_Metabox 500mm_N
_Metabox 550mm_N
_Metabox 270mm_M
_Metabox 350mm_M
_Metabox 400mm_M
_Metabox 450mm_M
_Metabox 500mm_M
_Metabox 550mm_M
_Vodilica 350mm
_Vodilica 400mm
_Vodilica 450mm
_Vodilica 500mm
_Vodilica 550mm
_Tandembox 270mm N
_Tandembox 270mm M
_Tandembox 270mm B
_Tandembox 350mm B
_Tandembox 350mm N
_Tandembox 350mm M
_Tandembox 400mm B
_Tandembox 400mm N
_Tandembox 400mm M
_Tandembox 450mm M
_Tandembox 450mm N
_Tandembox 450mm B
_Tandembox 500mm B
_Tandembox 500mm M
_Tandembox 500mm N
_Tandembox 550mm B
_Tandembox 550mm M
_Tandembox 550mm N
_prihvatnik_za_metabox N
_prihvatnik_za_metabox K
_prihvatnik_za_metabox  H
_nogica 150
_spojnica_tip 1
_spojnica_tip 2
_spojnica_tip 3
_spojnica_tip 4
_prihvatnik_za_metabox M
_Ograda za metabox
_kanta za smece PVC
_kanta za smece rostfrei
_okretno izvlacna kosara PVC
_okretno izvlacna kosara rostfrei
_umetak za bestek 600
_umetak za bestek 600 rostfrei
_umetak za bestek 900
_umetak za bestek 900 rostfrei
_kanta za smece
_Umetak za tanjure 600
_Umetak za tanjure 900
_Set za rasvjetu1
_Set za rasvjetu2
_Set za rasvjetu3
_drzaci za zacine1
_drzaci za zacine2
_Kosarica za zacine1
_Kosarica za zacine2
_Kosarica za ubruse
_Stalak za ubruse
_kukice za kuh krpe
_Vodilica 250mm
_spojnica_tip 5 kutna
_Nosac police1
_Drvena tipla1
_svornjak
_ekscentar
_amortizer
_Vodilica 300mm
_alu ruckica
_nogica 100
_sudoper blancoaxia 5S
_sudoper02
_alu cokla 100
_U_profil_za_ormare_001 
_U_profil_za_ormare_002
_H_profil_za_ormare_002
_H_profil_za_ormare_001 
_U_profil_za_ormare_003
_U_profil_za_ormare_004
_garderobni okov 01
_garderobni okov 02
_izvlacna kosara 02
_izvlacna kosara 03
_izvlacna kosara 04
_izvlacna kosara 01
_nosac cipela 01
_ovjesna sipka 01
_garderobni lift
pecnica wirpool1
pecnica wirpool2
_U_profil_za_fronte
pecnica wirpool3
pecnica wirpool4
pecnica wirpool5
pecnica wirpool6
pecnica wirpool7
pecnica aeg
pecnica bosch 01
pecnica bosch 02
pecnica candy 01
pecnica electrolux 01
pecnica gorenje 02
grijaca ploca wirpool 01
grijaca ploca wirpool 02
grijaca ploca wirpool 03
grijaca ploca wirpool 04
Ruckica5
Ruckica16
Ruckica17
Ruckica18
Ruckica19
Ruckica23
Ruckica24
Ruckica20
Ruckica11
Ruckica12
Ruckica8
Ruckica7
Ruckica13
Ruckica1
Ruckica2
Ruckica21
Ruckica22
Ruckica14
Ruckica9
Ruckica3
Ruckica4
grass fioka
Noga0_100
Noga6_150
Noga0_150
Noga1_100
Noga1_120
Noga1_150
Noga2_20
Noga2_50
Noga3_100
Noga3_150
Noga4_100
Noga4_150
Noga5_100
Noga5_150
Noga6_100
_alu cokla 150
_pvc cokla 100
_pvc cokla 150
_sudoper_kutni
_sudoper03
_sudoper04
_sudoper05
_sudoper06
_sudoper07
_sudoper08
hladnjak samsung
hladnjak_01
hladnjak_02
hladnjak_03
hladnjak_04
hladnjak_05
Metabox Integra Top 350/117mm, bijeli
Prihvatnik fronte za Integra top, desni
Prihvatnik fronte za Integra top, lijevi
Pokrivna kapa za Integra top, PVC, bijela
Ručkica Reling, Ø12 mm, 700/32, aluminij eloksirani
Metabox Integra top 350/149mm, bijeli
Ručkica Reling, Ø12 mm, 156/32, alumij eloksirani
Sudoper Form 30, Ø510 mm, sa sifonom
Spojnica_170°_ravna
Nosac_visecih_elemenata_806 D+L+kapa
Ruckica_3337703_160mm
Vijak_M4_22.5_za_ruckicu
Spojnica_ravna_CLIP 100_3311351
Podlozna_plocica_za_spojnicu_CLIP_0mm
Vijak_4x17mm
Ruckica_7650492_128mm
Ruckica_7550010_160mm
Ruckica_7653050_160mm
Nogica_crna_100mm
Spojni_profil_Alu_18x18mm
Prihvatnik_za_spojni_profil_PVC
Vijak_3x20mm
Vijak_4x30mm
Tipla_Bukva_8x35mm
Nosac_police_s_prstenom
TANDEMBOX_ANTARO_83/500
TANDEMBOX_ANTARO_224/500
AVENTOS_HF_SD_LF_5350/10150_20F2500,05
AVENTOS_HK-S_FS_960-2215_20K2E01
Nosac_staklene_police
Alu_sokla_150
Kutnik_Jolly_sokle_150mm_sivi
Ledjna_letva_w980_WAP3
Kutnik_ledjne_letve_WAP3
Umetak_za_bestek_PVC_60_sivi
Prihvatnik_za_Alu-PVC_sokl
Vijak_4x60mm
Stoperi_za_spojnice
Sina_za_vjesanje
Kosara_izvlacna_150
Podlozna_plocica_za_spojnicu_CLIP_3mm
Spojnica_paralelna_CLIP_na_tiplu_79T9580
Spojnica_paralelna_CLIP_topBLU_95°
kosara_izvlacna_visoka_CLICKFIXX
Kosara_izvlacna_Solido_300_Sige
METABOX_150/550
Ruckica_Norfolk_96mm
Silikonski_ublazivac_utisni
METABOX_86/500
METABOX_150/500
Nosac_police_Semi
Zastitna_podloga_Element_600mm
Alu_sokla_100
Kutnik_Jolly_sokle_100mm_sivi
Ruckica_Intra_192mm
Ledjna_letva_Alu_niska_4,2m
Kutnik_ledjne_letve_Alu_niska
Noga_za_namjestaj_100mm_Ø30mm_bijela
Vijak_za_podesavanje_visine_M10
Nosac_visecih_elemenata_bijeli_na_kljuc_gedora
Zastitna_podloga_Element_800mm
Zastitna_podloga_Element_1000mm
Zastitna_podloga_Element_500mm
Zastitna_podloga_Element_1200mm
Zastitna_podloga_Element_900mm
Konzola_bar_Elba_kosa_202mm_fi50
Nosac_zidni_D35
Vjesalica_Megy
Ogledalo_480x1680x4
Sokla_bijela_100mm
Sokla_bijela_150mm
Kutnik_Jolly_sokle_100mm_bijeli
Kutnik_Jolly_sokle_150mm_bijeli
Prihvatnik_za_drveni_sokl
TIP_ON_za_vrata_kratki
TIP_ON_za_vrata_dugi
Spojnica_polukriva_CLIP_s_tiplom
Stezni_nosac_police_Kaiman_(par)
Nogica_PVC_klizac_smedja
Cijev_ovalna_30x15_3m_krom
Nosac_ovalne_cijevi
Ruckica_Nina_192mm
Ekscentar+vijak
Profil_za_radnu_plocu_Alu_Egger
Profil_zavrsni_Egger
Ruckica_Ikaros_32mm
Umetak_za_bestek_PVC_45_sivi
Ventilacijska_resetka
Ventilacijska_resetka_smeđa
Ruckica_Lee_160mm
Umetak_za_bestek_PVC_80_sivi
Ogledalo_1457x277x4
Vjesalica_Lorena
Garderobni_lift_Solido_600-1000mm_sivi
Kutnik_za_krevet_system_32_set4
Vijak_4x20mm
Vijak_4x40mm
Ruckica_Finn_160mm_zeljezo
Ruckica_Finn_160mm_celik
METABOX_86/270
Ruckica_Elidor_Ø10_256mm
Umetak_za_bestek_PVC_40_sivi
Nosac_visecih_elemenata_807 D+L+kapa
Ledjna_letva_Compact_line_3m_siva
Kutnik_ledjne_letve_Compact_line_sivi
TANDEMBOX_ANTARO_68/500
TANDEMBOX_ANTARO_224/270_TIP_ON_BM_sivi
Noga_dekorativna_100mm_Ø30mm_krom
TANDEMBOX_ANTARO_83/270
Kabel_maska_Ø60mm
TANDEMBOX_ANTARO_83/300
Ovjes_801_za_nosac_807
Ruckica_Elros_Ø12_224mm
Umetak_za_bestek_PVC_90_sivi
Ruckica_Elros_Ø12_320mm
Nevidljivi_nosac_police_Compact_122mm
TANDEMBOX_ANTARO_83/450
METABOX_150/450
Ruckica_Adrias_800mm
Ruckica_Salra_Ø12_224mm
Filc_podlozak_s_vijkom_Ø20
Vjesalica_izvlacna_model_B_310mm
Vjesalica_izvlacna_model_B_410mm
Staklena_polica_512x290x6mm
Alu_okvir_1747x447x20
Alu_okvir_897x332x45
Bravica_cilindar_lijeva
Bravica_cilindar_desna
Kutni_prihvatnik_za_bravicu_30x11x11
Gumb_Neleus
Klizna_vrata_IN_OUT_komplet_1000_1500
Ruckica_Nysa_128mm
Nogica_podesivac_visine_305
Ruckica_ukopna_Azaleh
TANDEMBOX_ANTARO_83/450_TIP_ON_BM_sivi
TANDEMBOX_ANTARO_83/350_TIP_ON_BM_sivi
Stezni_nosac_police_Bord
TANDEMBOX_ANTARO_83/350
Kutni_nosac_bijeli_(par)
Zidna_vodilica_Classic_bijela_(par)
Nosac_ovalne_cijevi_zatvoreni
METABOX_150/350
METABOX_86/350
METABOX_86/400
METABOX_86/450
Stoper_za_Metabox
Nogica_PVC_klizac_bijela
Ruckica_Hades_32mm_desna
Ruckica_Hades_32mm_lijeva
Kapa_PVC_35mm_bijela
TANDEMBOX_ANTARO_224/450
Ruckica_Fiona
solido_METABOX_86/500
solido_METABOX_150/500
Ruckica_Mia_160mm
Noga_za_stol_710mm
solido_METABOX_86/350
Ruckica_Ascardo_Ø12_96mm
Ruckica_Ascardo_Ø12_224mm
Ruckica_Agrios
Nogica_PVC_75x75x50
Ruckica_Mia_128mm
solido_METABOX_86/270
Kotacic_Disky2_s_kocnicom
Kotacic_Disky2_bez_kocnice
Ruckica_profilna_Trim
SALU_gornja_vodilica
SALU_donja_vodilica
SALU_kocnica
SALU_set_kotacica_za_jedna_vrata
Gumb_Pandora_bijeli_porculan
Ruckica_Sena_160mm
Stalak_za_tanjure_i_case_600mm
Ruckica_Adrias_224mm
Ruckica_Adrias_288mm
TANDEMBOX_ANTARO_224/350
Ventilacijska_resetka_bijela
Ruckica_Poias_128mm
Gumb_Pallas_krom_mat
Ruckica_Elros_Ø12_192mm
Vjesalica_Aurigae
Ruckica_Nina_256mm
Noga_za_namjestaj_100mm_Ø30mm_krom
Kosara_izvlacna_Solido_200_Sige
Ruckica_Sena_256mm
TANDEMBOX_ANTARO_224/400
TANDEMBOX_ANTARO_83/400
Stalak_za_tanjure_i_case_900mm
Vjesalica_Deneb
Vjesalica_Deneb_mala
Ruckica_Salra_Ø12_288mm
Noga_stola_Click_Ø50mm_705mm
Noga_stola_Zoom_Ø60mm_1100mm
Ruckica_Salra_Ø12_480mm
Vjesalica_izvlacna_model_B_360mm
Ruckica_Adrias_160mm
Ruckica_Adrias_384mm
Ruckica_Salra_Ø12_160mm
Nogica_PVC_190mm
Nosac_srednje_letve_za_krevet
Noga_za_namjestaj_100mm_kvadrat_alu
Ruckica_Adrias_192mm
Ruckica_Nina_320mm
Ruckica_Ascardo_Ø12_192mm
Kabel_maska_Ø80mm_crna
Ruckica_Elros_Ø12_160mm
TANDEMBOX_ANTARO_224/550
Garderobni_lift_Solido_600-1000mm_crni
TANDEMBOX_ANTARO_83/550
Ruckica_Adrias_480mm
SOLIDO_podizni_okov_12kg
Ruckica_Elros_Ø12_384mm
Završni_profil_sokla_4m
Okretni_dvostruki_kotacic_bez_kocnice
Okretni_dvostruki_kotacic_s_kocnicom
Bravica_centralna_bocno_600mm+kutnik
Kosara_okretna_zicana_700mm(par)
Ruckica_Denver_128mm
Vjesalica_Inti
Vjesalica_izvlacna_model_B_260mm
Vjesalica_izvlacna_model_B_460mm
Ruckica_Salra_Ø12_192mm
Ruckica_Salra_Ø12_800mm
Ruckica_Salra_Ø12_320mm
Ruckica_Arco_128mm
Bravica_centralna_600mm
Reling_cijev_596mm_5_kukica
TANDEMBOX_ANTARO_224/450_TIP_ON_BM_sivi
Gumb_Alkes
Zasun_namjestaja_70mm_nikl_ravni
Noga_za_namjestaj_200mm_Ø30mm_bijela
Spojnica_za_staklo_ravna
Kapa_spojnice_za_staklo_nikl_mat_oblik_D
Alu_okvir_547x547x45
Profil_za_radnu_plocu_Alu_Funder
T_profil_za_radnu_plocu
Ruckica_Tampa_96mm_zlatna
Ruckica_Kreis_96mm
Ovjes_814_bez_opruge
Ovjes_814_sa_oprugom
Zidna_letvica_za_ovjes_814
Kosare_FLEX_CORNER_900mm
Solido_keks
Kosare_FLEX_CORNER_1000mm
Podloska_PVC_M4
Nogica_podesivac_visine_300/301
AVENTOS_HK_LF_750/2500_20K2500,05
AVENTOS_HK_1500/4900_20K2700,05
Nogica_PVC_75x75x20
SOLIDO_podizni_okov_5kg
Gumb_Tampa
Noga_dekorativna_190mm_Ø42mm_krom
Kosara_okretni_okov_RECORNER_800/900mm
Ruckica_Enija_Ø12_260mm
Ruckica_Salra_Ø12_256mm
Ledjna_letva_Alu_visoka_5m
Kutnik_ledjne_letve_Alu_visoka
Ruckica_Nestis_128mm_s_200_bijelo_mat
Vodilica_350mm_(par)
Noga_uredskog_stola_Lea
Teleskopska_poveznica_za_noge_Lea
Vjesalica_Doradus2
Ogledalo_2000x520x4
Ruckica_Eradis_Ø12_192mm
Vjesalica_Zeta
Podesivac_visine_306
Pokrivna_kapica_podesivaca_visine_306
Spojnica_kriva_CLIP_s_tiplom
Ruckica_3050080_128mm
Umetak_za_bestek_SKY_1000mm_sivi
Umetak_za_bestek_SKY_900mm_sivi
Staklena_polica_1112x340x6mm
Ruckica_lager_stara
Ruckica_Tampa_96mm_srebrna
TANDEM_BLUMOTION_vodilica_potpuna_izvlaka_500mm+spojka_L_D
TANDEMBOX_vodilica_potpuna_izvlaka_550mm
Staklena_polica_962x190x6mm
Alu_okvir_297x957x20
Stezni_nosac_staklene_police_Oval_(par)
Zaustavni_drzac_za_otklopna_vrata_Kraby
Adapter_za_uski_alu_okvir_Kraby_srebrni
Ruckica_Wrap_128mm
Umetak_za_bestek_SKY_500mm_sivi
Kosara_univerzalna_380x460x380 mm
Nosac_kosare_285mm
Preklopni_drzac_KH_250mm
Vijak_4x50mm
Unutarnji_Tandembox_antaro_116/500_set_K_bijeli(+ vodilica+drzac+stranica)
Univerzalni_spojni_okov_za_ormare_plastika_svijetlosmeđa
Ručkica Ukrasni cvijet, razmak rupa 96 mm,
Kotacic 15x14mm, siva plastika_1komad_2kotacica
Noga_za_namjestaj_100mm_Ø30mm_sreb_RAL9006
Umetak_za_bestek_SKY_300mm_sivi
Ventilacijska_resetka_siva_forest
AVENTOS HK-S pokrivna kapa_ plastika bijela _ lijeva
AVENTOS HK-S pokrivna kapa_ plastika bijela _ desna
BLUM CLIP ekscentar podložna pločica ravna_čelik_vijci_ razmak 0 mm
Ruckica_Nestis_192 mm_š_260 mm_bijelo_mat
Ruckica_Alus_128mm
SALU S60N vertikalna profilna ručka S13B, D2700 mm, alu
Ruckica_Alastor_160/192mm
Ruckica_Macha_192mm
Vijak_za_podesavanje_visine_M8_ø20_crni
METABOX_86/550
Ruckica_zelena_zabica
Univerzalni_spojni_okov_za_ormare_plastika_bijela
Nevidljivi_nosac_police_Compact_162mm
Umetak_za_bestek_SKY_800mm_sivi
Noga_dekorativna_40x40x60mm_Forest
Aventos HL_SD_paket_snage_4,25-20
TIP_ON_kratki_kućište_sivo
TANDEMBOX_ANTARO_224/450_TIP_ON_SINKRONIZATOR_sivi
Ruckica_7500797_160mm
Ruckica_7650046_288mm
Ruckica_7650849_288mm
Umetak_za_bestek_SKY_700mm_sivi
Ruckica_Dugme_bakrena
Stoper_za_krivu_spojnicu
Plinski_amortizer_na_gore_80n
SOLIDO_podizni_okov_8kg
SOLIDO_adapter_prihvatna_spojka
Ruckica_Iole_128mm
Ruckica_Sulis_krom_128mm
Vjesalica_Lorena_krom_sjaj
Ruckica_7500280_16mm
AVENTOS_HK_tip_on_dugi_LF750-2500_20K2500T
Ruckica_Salra_Ø12_160mm_š240_čelik
Umetak_za_bestek_SCOOP_300mm_srebrni
Poluekscentar+vijak
Klizna_vrata_IN_OUT_komplet_1500_2000
Kosare_magic_corner
METABOX_150/400
Ruckica_7653440_Š_295mm
Ruckica_Aludra_32mm_Š_40,5
Kosare_FLEX_CORNER_bez_mehanizma
Kutni_okov_za_kosare 3379522
Izvlacna_kolona_1200-1450mm_za_kosare
Kosare_300_za_izvlacnu_kolonu_1200-1450mm
Ruckica_7500655
 TANDEM_BLUMOTION_vodilica_potpuna_izvlaka_350mm+spojka_L_D
Noga_za_namjestaj_100mm_Ø30mm_celik
Ruckica_Alus_128mm_sirina_139mm
Noga_za_namjestaj_200mm_kvadrat_sreb_RAL9006
 TANDEMBOX_ANTARO_224/400_TIP_ON_BM_SINKRONIZATOR_sivi
 Kapa_spojnice_za_staklo_nikl_mat_ovalna
Staklena_vrata_572x717x6
Staklena_vrata_572x717x6
Staklena_vrata_497x697x6
TANDEMBOX_ANTARO_224/500_TIP_ON_BM_SINKRONIZATOR_sivi
TANDEMBOX_ANTARO_83/500_TIP_ON_BM_SINKRONIZATOR_sivi
Ruckica_Gola_profil_podni_5m_bijela
Ruckica_Adison_profina_viseci_4,2m
Kutnik_za_Gola_profil_bijeli
Nosac_za_Gola_profil
TANDEM_BLUMOTION_vodilica_potpuna_izvlaka_450mm+spojka_L_D
Stoperi_mekani_10x80mm
LEGRABOX_90,5/500
LEGRABOX_177/500
Umetak_za_bestek_SKY_600mm_sivi
_Drvena tipla
_Spojnica
_Nosac police
_Nogica
_Ruckica
_Vodilica ladice 350mm
_Vodilica ladice 400mm
_Vodilica ladice 450mm
_Vodilica ladice 500mm
_Vodilica ladice 550mm
_Metabox 350mm
_Metabox 400mm
_Metabox 450mm
_Metabox 500mm
_Metabox 550mm
_Tandembox 350mm
_Tandembox 400mm
_Tandembox 450mm
_Tandembox 500mm
_Tandembox 550mm
Alu profil H 10 22x15
Alu profil U 10 22x15
Aventos HK-S 220-500 - komplet
Aventos HK-S 400-1000 - komplet
Aventos HK-S 960-2215 - komplet
Aventos HKS graničnik 100 st.
Aventos HKS graničnik 75 st.
Aventos HKS TIP-ON ubušeni
Aventos HKS TIP-ON vanjski
Aventos HF 960 - 2650 ( 1 kom) - komplet
Aventos HF 2600 - 5500 ( 1 par) - komplet
Aventos HF 5350 - 10150 ( 1 par) - komplet
Aventos HF 9000 - 11250 ( 1 par) - komplet
Aventos HF 13500 - 25900 ( 3 kom ) - komplet
Aventos HF tel. poluga 480 - 570 - komplet
Aventos HF tel. poluga 560 - 710 - komplet
Aventos HF tel. poluga 700 - 900 - komplet
Aventos HF tel. poluga 760 - 1040 - komplet
Aventos HF Servo Drive - komplet
Aventos HF dodatna spojnica i međuspojnica - komplet
Aventos HF graničnik 104 stupnja
Aventos HF graničnik 83 stupnja
Blum Metabox N 270 - komplet
Blum Metabox N 350 - komplet
Blum Metabox N 400 - komplet
Blum Metabox N 450 - komplet
Blum Metabox N 500 - komplet
Blum Metabox N 550 - komplet
Blum Bluemotion za Metabox 320
Blum Metabox M 270 - komplet
Blum Metabox M 350 - komplet
Blum Metabox M 400 - komplet
Blum Metabox M 450 - komplet
Blum Metabox M 500 - komplet
Blum Metabox M 550 - komplet
Blum Metabox K 270 - NE POSTOJI!
Blum Metabox K 350 - komplet
Blum Metabox K 400 - komplet
Blum Metabox K 450 - komplet
Blum Metabox K 500 - komplet
Blum Metabox K 550 - komplet
Blum Metabox H 270 - NE POSTOJI!
Blum Metabox H 350 - komplet
Blum Metabox H 400 - komplet
Blum Metabox H 450 - komplet
Blum Metabox H 550 - komplet
Blum Metabox H 500 - komplet
Blum Metabox B 270 - NE POSTOJI!
Blum Metabox B 350 (M+reling, leđa 127) - komplet
Blum Metabox B 400 (M+reling, leđa 127) - komplet
Blum Metabox B 450 (M+reling, leđa 127) - komplet
Blum Metabox B 500 (M+reling, leđa 127) - komplet
Blum Metabox B 550 (M+reling, leđa 127) - komplet
Blum Metabox D1 270 - NE POSTOJI!
Blum Metabox D1 350 (M+reling, leđa: 191) - komplet
Blum Metabox D1 400 (M+reling, leđa: 191) - komplet
Blum Metabox D1 450 (M+reling, leđa: 191) - komplet
Blum Metabox D1 500 (M+reling, leđa: 191) - komplet
Blum Metabox D1 550 (M+reling, leđa: 191) - komplet
Blum Metabox D2 270 - NE POSTOJI!
Blum Metabox D2 350 (M+2 x reling, leđa: 191) - komplet
Blum Metabox D2 400 (M+2 x reling, leđa: 191) - komplet
Blum Metabox D2 450 (M+2 x reling, leđa: 191) - komplet
Blum Metabox D2 500 (M+2 x reling, leđa: 191) - komplet
Blum Metabox D2 550 (M+2 x reling, leđa: 191) - komplet
Blum Metabox D3 270 - NE POSTOJI!
Blum Metabox D3 350 (M+stranica, leđa: 191) - komplet
Blum Metabox D3 400 (M+stranica, leđa: 191) - komplet
Blum Metabox D3 450 (M+stranica, leđa: 191) - komplet
Blum Metabox D3 500 (M+stranica, leđa: 191) - komplet
Blum Metabox D3 550 (M+stranica, leđa: 191) - komplet
Vodilica Blum Standard 250 djelomična izvlaka - komplet
Vodilica Blum Standard 300 djelomična izvlaka - komplet
Vodilica Blum Standard 350 djelomična izvlaka - komplet
Vodilica Blum Standard 400 djelomična izvlaka - komplet
Vodilica Blum Standard 450 djelomična izvlaka - komplet
Vodilica Blum Standard 500 djelomična izvlaka - komplet
Vodilica Blum Standard 550 djelomična izvlaka - komplet
Vodilica Blum Standard 600 djelomična izvlaka - komplet
Vodilica Blum Standard 650 djelomična izvlaka - komplet
Vodilica Blum Standard 700 djelomična izvlaka - komplet
Vodilica Blum Standard 750 djelomična izvlaka - komplet
Vodilica Blum Standard 800 djelomična izvlaka - komplet
Vodilica Blum Standard 250 potpuna izvlaka - komplet
Vodilica Blum Standard 300 potpuna izvlaka - komplet
Vodilica Blum Standard 350 potpuna izvlaka - komplet
Vodilica Blum Standard 450 potpuna izvlaka - komplet
Vodilica Blum Standard 500 potpuna izvlaka - komplet
Vodilica Blum Standard 550 potpuna izvlaka - komplet
Vodilica Blum Standard 600 potpuna izvlaka - komplet
Vodilica Blum Standard 650 potpuna izvlaka - komplet
Vodilica Blum Standard 700 potpuna izvlaka - komplet
Vodilica Blum Standard 750 potpuna izvlaka - komplet
Vodilica Blum Standard 800 potpuna izvlaka - komplet
Vodilica Blum Standard 400 potpuna izvlaka - komplet
Blum Tandem (plus) 250 - komplet
Blum Tandem (plus) 270 - komplet
Blum Tandem (plus) 300 - komplet
Blum Tandem (plus) 320 - komplet
Blum Tandem (plus) 350 - komplet
Blum Tandem (plus) 380 - komplet
Blum Tandem (plus) 400 - komplet
Blum Tandem (plus) 420 - komplet
Blum Tandem (plus) 450 - komplet
Blum Tandem (plus) 480 - komplet
Blum Tandem (plus) 500 - komplet
Blum Tandem (plus) 520 - komplet
Blum Tandem (plus) 550 - komplet
Blum Tandem (plus) 580 - komplet
Blum Tandem (plus) 600 - komplet
Blum Tandem (plus) 620 - komplet
Blum Tandem (plus) 650 - komplet
Blum Tandem (plus) 700 - komplet
Blum Tandem (plus) 750 - komplet
Blum Tandem Tip-On
Blum Tandem Servo Drive
Blum Tandem Blumotion
Blum Tandem - potpuno izvlačenje
Blum Tandem - djelomično izvlačenje
Blum Tandem - sinkronizator
NE POSTOJI Blum Tandembox Antaro - N 270 30kg 
NE POSTOJI Blum Tandembox Antaro - N 300 30kg
NE POSTOJI Blum Tandembox Antaro - N 350 30kg
Blum Tandembox Antaro - N 400 30kg
Blum Tandembox Antaro - N 450 30kg
Blum Tandembox Antaro - N 500 30kg
Blum Tandembox Antaro - N 550 30kg
NE POSTOJI Blum Tandembox Antaro - N 600 30kg 
Blum Tandembox Antaro - Boja: SW - Svileno bijela
Blum Tandembox Antaro - M 270 30kg
Blum Tandembox Antaro - M 300 30kg
Blum Tandembox Antaro - M 350 30kg
Blum Tandembox Antaro - M 400 30kg
Blum Tandembox Antaro - M 450 30kg
Blum Tandembox Antaro - M 500 30kg
Blum Tandembox Antaro - M 550 30kg
Blum Tandembox Antaro - M 600 30kg
Blum Tandembox Antaro - M 650 30kg
Blum Tandembox Antaro - K 270 30kg
Blum Tandembox Antaro - K 300 30kg
Blum Tandembox Antaro - K 350 30kg
Blum Tandembox Antaro - K 400 30kg
Blum Tandembox Antaro - K 450 30kg
Blum Tandembox Antaro - K 500 30kg
Blum Tandembox Antaro - K 550 30kg
Blum Tandembox Antaro - K 600 30kg
Blum Tandembox Antaro - K 650 30kg
Blum Tandembox Antaro - Servo Drive
Blum Tandembox Antaro - TipOn
Blum Tandembox Antaro - Stabilizator
Blum Tandembox Antaro - C 300 30kg
Blum Tandembox Antaro - C 270 30kg
Blum Tandembox Antaro - C 350 30kg
Blum Tandembox Antaro - C 400 30kg
Blum Tandembox Antaro - C 450 30kg
Blum Tandembox Antaro - C 500 30kg
Blum Tandembox Antaro - C 550 30kg
Blum Tandembox Antaro - C 600 50kg
Blum Tandembox Antaro - C 650 50kg
Blum Tandembox Antaro - C umetak
Blum Tandembox Antaro - D 270 30kg
Blum Tandembox Antaro - D 300 30kg
Blum Tandembox Antaro - D 400 30kg
Blum Tandembox Antaro - D 350 30kg
Blum Tandembox Antaro - D 450 30kg
Blum Tandembox Antaro - D 500 30kg
Blum Tandembox Antaro - D 550 30kg
Blum Tandembox Antaro - D 600 50kg
Blum Tandembox Antaro - D 650 50kg
Blum Tandembox Antaro - D umetak
Blum Tandembox Antaro - Boja: TS - Zemljano crna
Blum Tandembox Antaro - Boja: R9006 - Siva
Blum Tandembox Antaro - Boja: INGL - nehrđajući čelik
Blum Tandembox Antaro - Boja: S - Crna
Blum Tandembox Antaro - Boja: WGR - Sivo bijela
Blum Tandembox Antaro - Boja: R7037 - Prašnjavo siva
Blum Tandembox Antaro - Boja: NI - poniklano
Blum Tandembox Antaro - Boja: NI-M - Mat. poniklana
Nogica PVC 100mm
Garderobna cijev - ovalna
Nosač garderobne cijevi
Ručkica Reling_96_Alu
Ručkica Reling_128_Alu
Ručkica Reling_160_Alu
Ručkica Reling_192_Alu
Ručkica Reling_224_Alu
Ručkica Reling_96_Krom
Ručkica Reling_128_Krom
Ručkica Reling_160_Krom
Ručkica Reling_192_Krom
Ručkica Reling_224_Krom
Tipla drvena 6x30
Tipla drvena 8x35
Tipla drvena 10x40
Minifiks - Ekscentar bez ruba, fi15, L=13.8, i=9-9.5
Minifiks - Ekscentar s rubom fi15, D=13.8, i=9-9.5
Minifiks - Stezni vijak, EN6, fi5, i=34, L=11
Minifiks - Stezni vijak, EN6, fi5, i=24, L=11
Minifiks - Stezni vijak, M6, fi5, i=34, L=8
Minifiks - Stezni vijak, M6, fi5, i=24, L=8
Minifiks - Poluekscentar, fi20, L=14
Minifiks - Stezni vijak, EN6, fi5, L=12 - za poluekscentar
Nosač elemenata
Nosač polica s prstenom 5x16
Nosač polica 5x21
Nosač polica fi5/7
Nosač polica s plastičnim nastavkom, fi5
Nosač polica - konzolni, 1 trn, fi5
Nosač polica - konzolni, 2 trna, fi5
Nosač polica - vakumski, za staklo, fi5
Nosač polica - s gumicama, za staklo, fi5
Minifiks - Ekscentar
Minifiks - Stezni vijak
Spojnica ravna i križni podložak - komplet
Spojnica polukriva i križni podložak - komplet
Spojnica kriva i križni podložak - komplet
Silikonski ublaživač udarca - fi9, 5 x 13
Spojnica ravna
Spojnica polukriva
Spojnica kriva
Podlozna pločica križna
Podlozna pločica ravna
Ublazivač za spojnicu
Pokrivna kapica za spojnicu
Pokrivna kapica za čašicu
Vijak konfirmat 5x50 inbus 3mm - pocinčani
Vijak konfirmat 6.3x50 inbus 3mm - pocinčani
Vijak konfirmat 7x50 inbus 4mm - pocinčani
Iver vijak 3.5 x 15 
Euro vijak 6.3 x 13 
Iver vijak 4 x 17 
Iver vijak 3.0 x 20 
Iver vijak 5 x 25
Spojnica, ravna, 110 EasyFix T-Type Glissando 
Spojnica, polukriva, 110 EasyFix T-Type Glissando
Spojnica, kriva, 110 EasyFix T-Type Glissando
Spojnica, 110/15, EasyFix T-Type Glissando
Spojnica, 110/30, EasyFix T-Type Glissando
Spojnica, 110/45-9, EasyFix T-Type Glissando
Spojnica, 110/45-17, EasyFix T-Type Glissando
Spojnica, bočna, 110/90 EasyFix T-Type Glissando
Spojnica, ravna, 110 EasyFix T-Type
Spojnica, polukriva, 110 EasyFix T-Type
Spojnica, kriva, 110 EasyFix T-Type
Spojnica, bočna, 110/90 EasyFix T-Type
Spojnica, ravna, 170 EasyFix T-Type
Spojnica, polukriva, 170 EasyFix T-Type
Spojnica, kutna, EasyFix T-Type
Podložna pločica, križna, vijak 5x15, T-Type
Podložna pločica, križna, tipla i vijak, 5x10.5, T-Type
Podložna pločica, ravna, tipla i vijak, 5x10.5, T-Type
Tekform Slimline DW 70-270, Easy Fix, bijelo
Tekform Slimline DW 70-270, Easy Fix, sivo
Tekform Slimline DW 70-270, vijak, sivo
Tekform Slimline DW 70-270, vijak, bijelo
Tekform Slimline DW 70-300, vijak, sivo
Tekform Slimline DW 70-300, vijak, bijelo
Tekform Slimline DW 70-300, Easy Fix, bijelo
Tekform Slimline DW 70-300, Easy Fix, sivo
Tekform Slimline DW 70-350, Easy Fix, bijelo
Tekform Slimline DW 70-350, Easy Fix, sivo
Tekform Slimline DW 70-350, vijak, bijelo
Tekform Slimline DW 70-350, vijak, sivo
Tekform Slimline DW 70-400, vijak, sivo
Tekform Slimline DW 70-400, vijak, bijelo
Tekform Slimline DW 70-400, Easy Fix, sivo
Tekform Slimline DW 70-400, Easy Fix, bijelo
Tekform Slimline DW 70-450, vijak, sivo
Tekform Slimline DW 70-450, vijak, bijelo
Tekform Slimline DW 70-450, Easy Fix, sivo
Tekform Slimline DW 70-450, Easy Fix, bijelo
Tekform Slimline DW 70-500, vijak, sivo
Tekform Slimline DW 70-500, vijak, bijelo
Tekform Slimline DW 70-500, Easy Fix, sivo
Tekform Slimline DW 70-500, Easy Fix, bijelo
Tekform Slimline DW 70-550, vijak, sivo
Tekform Slimline DW 70-550, vijak, bijelo
Tekform Slimline DW 70-550, Easy Fix, sivo
Tekform Slimline DW 70-550, Easy Fix, bijelo
Tekform Slimline DW100-270, Easy Fix, bijelo
Tekform Slimline DW100-270, Easy Fix, sivo
Tekform Slimline DW100-270, vijak, bijelo
Tekform Slimline DW100-270, vijak, sivo
Tekform Slimline DW100-300, Easy Fix, bijelo
Tekform Slimline DW100-300, Easy Fix, sivo
Tekform Slimline DW100-300, vijak, bijelo
Tekform Slimline DW100-300, vijak, sivo
Tekform Slimline DW100-350, Easy Fix, bijelo
Tekform Slimline DW100-350, Easy Fix, sivo
Tekform Slimline DW100-400, Easy Fix, bijelo
Tekform Slimline DW100-400, Easy Fix, sivo
Tekform Slimline DW100-450, Easy Fix, bijelo
Tekform Slimline DW100-450, Easy Fix, sivo
Tekform Slimline DW100-500, Easy Fix, bijelo
Tekform Slimline DW100-500, Easy Fix, sivo
Tekform Slimline DW100-550, Easy Fix, bijelo
Tekform Slimline DW100-550, Easy Fix, sivo
Tekform Slimline DW100-350, vijak, bijelo
Tekform Slimline DW100-350, vijak, sivo
Tekform Slimline DW100-400, vijak, bijelo
Tekform Slimline DW100-400, vijak, sivo
Tekform Slimline DW100-450, vijak, bijelo
Tekform Slimline DW100-450, vijak, sivo
Tekform Slimline DW100-500, vijak, bijelo
Tekform Slimline DW100-500, vijak, sivo
Tekform Slimline DW100-550, vijak, bijelo
Tekform Slimline DW100-550, vijak, sivo
Tekform Slimline DW145-270, Easy Fix, bijelo
Tekform Slimline DW145-270, Easy Fix, sivo
Tekform Slimline DW145-300, Easy Fix, bijelo
Tekform Slimline DW145-300, Easy Fix, sivo
Tekform Slimline DW145-350, Easy Fix, bijelo
Tekform Slimline DW145-350, Easy Fix, sivo
Tekform Slimline DW145-400, Easy Fix, bijelo
Tekform Slimline DW145-400, Easy Fix, sivo
Tekform Slimline DW145-450, Easy Fix, bijelo
Tekform Slimline DW145-450, Easy Fix, sivo
Tekform Slimline DW145-500, Easy Fix, bijelo
Tekform Slimline DW145-500, Easy Fix, sivo
Tekform Slimline DW145-550, Easy Fix, bijelo
Tekform Slimline DW145-550, Easy Fix, sivo
Tekform Slimline DW145-270, vijak, bijelo
Tekform Slimline DW145-270, vijak, sivo
Tekform Slimline DW145-300, vijak, bijelo
Tekform Slimline DW145-300, vijak, sivo
Tekform Slimline DW145-350, vijak, bijelo
Tekform Slimline DW145-350, vijak, sivo
Tekform Slimline DW145-400, vijak, bijelo
Tekform Slimline DW145-400, vijak, sivo
Tekform Slimline DW145-450, vijak, bijelo
Tekform Slimline DW145-450, vijak, sivo
Tekform Slimline DW145-500, vijak, bijelo
Tekform Slimline DW145-500, vijak, sivo
Tekform Slimline DW145-550, vijak, bijelo
Tekform Slimline DW145-550, vijak, sivo
Tekform Slimline DW182-270, Easy Fix, bijelo
Tekform Slimline DW182-270, Easy Fix, sivo
Tekform Slimline DW182-300, Easy Fix, bijelo
Tekform Slimline DW182-300, Easy Fix, sivo
Tekform Slimline DW182-350, Easy Fix, bijelo
Tekform Slimline DW182-350, Easy Fix, sivo
Tekform Slimline DW182-400, Easy Fix, bijelo
Tekform Slimline DW182-400, Easy Fix, sivo
Tekform Slimline DW182-450, Easy Fix, bijelo
Tekform Slimline DW182-450, Easy Fix, sivo
Tekform Slimline DW182-500, Easy Fix, bijelo
Tekform Slimline DW182-500, Easy Fix, sivo
Tekform Slimline DW182-550, Easy Fix, bijelo
Tekform Slimline DW182-550, Easy Fix, sivo
Tekform Slimline DW182-270, vijak, bijelo
Tekform Slimline DW182-270, vijak, sivo
Tekform Slimline DW182-300, vijak, bijelo
Tekform Slimline DW182-300, vijak, sivo
Tekform Slimline DW182-350, vijak, bijelo
Tekform Slimline DW182-350, vijak, sivo
Tekform Slimline DW182-400, vijak, bijelo
Tekform Slimline DW182-400, vijak, sivo
Tekform Slimline DW182-450, vijak, bijelo
Tekform Slimline DW182-450, vijak, sivo
Tekform Slimline DW182-500, vijak, bijelo
Tekform Slimline DW182-500, vijak, sivo
Tekform Slimline DW182-550, vijak, bijelo
Tekform Slimline DW182-550, vijak, sivo
